INDEX VERSION 1.126+F:\wand_chat_workspace\.metadata\.plugins\org.eclipse.jdt.core
407376204.index
2486079692.index
179372744.index
64370984.index
3193691523.index
860199372.index
2181169445.index
1526345466.index
2174464333.index
3819891461.index
1688616620.index
1633451134.index
113881936.index
